Project 1: Exploratory Data Analysis
…
wide2 <-pivot_wider(Drinks,names_from="country",values_from="total_litres_of_pure_alcohol")
pivot_longer(wide2,cols = c("Afghanistan":"Zimbabwe"),names_to="Country",values_to="Total Liters of Alcohol")

## # A tibble: 35,319 x 6
##    beer_servings spirit_servings wine_servings continent Country
##            <int>           <int>         <int> <fct>     <chr>  
##  1             0               0             0 Asia      Afghan
##  2             0               0             0 Asia      Albania
##  3             0               0             0 Asia      Algeria
##  4             0               0             0 Asia      Andorra
##  5             0               0             0 Asia      Angola 
##  6             0               0             0 Asia      Antigu
##  7             0               0             0 Asia      Argent
##  8             0               0             0 Asia      Armenia
##  9             0               0             0 Asia      Austra
## 10             0               0             0 Asia      Austria
## #  with 35,309 more rows, and 1 more variable: `Total Liters of Alcohol` <dbl>

wide <- pivot_wider(Happiness,names_from="Country.or.region",values_from="Score")
wide %>% pivot_longer(c("Finland":"South Sudan"),names_to="Country",values_to="Happiness_Score")

## # A tibble: 24,336 x 9
##    Overall.rank GDP.per.capita Social.support Healthy.life.ex Freedom.to.make
##           <int>          <dbl>          <dbl>            <dbl>            <dbl>
##  1            1           1.34           1.59            0.986            0.596
##  2            1           1.34           1.59            0.986            0.596
##  3            1           1.34           1.59            0.986            0.596
##  4            1           1.34           1.59            0.986            0.596
##  5            1           1.34           1.59            0.986            0.596
##  6            1           1.34           1.59            0.986            0.596
##  7            1           1.34           1.59            0.986            0.596
##  8            1           1.34           1.59            0.986            0.596
##  9            1           1.34           1.59            0.986            0.596
## 10            1           1.34           1.59            0.986            0.596
## #  with 24,326 more rows, and 4 more variables: Generosity <dbl>,
## #   Perceptions.of.corruption <dbl>, Country <chr>, Happiness_Score <dbl>
…
##   cor(Score, total_litres_of_pure_alcohol, use = "pair")
## 1                                              0.5006603

mydata %>% summarize(cor(Score,total_servings,use="pair"))

##   cor(Score, total_servings, use = "pair")
## 1                                0.6128006

cormat <- mydata %>% select_if(is.numeric) %>% cor(use="pair")
tidycor <- cormat %>% as.data.frame %>% rownames_to_column("var1") %>%  pivot_longer(-1,names_to="var2",values_to="correlation")
tidycor

## # A tibble: 64 x 3
##    var1         var2                         correlation
##    <chr>        <chr>                              <dbl>
##  1 Overall.rank Overall.rank                       1    
##  2 Overall.rank Score                             -0.990
##  3 Overall.rank Perceptions.of.corruption         -0.366
##  4 Overall.rank beer_servings                     -0.557
##  5 Overall.rank spirit_servings                   -0.353
##  6 Overall.rank wine_servings                     -0.532
##  7 Overall.rank total_litres_of_pure_alcohol      -0.507
##  8 Overall.rank total_servings                    -0.618
##  9 Score        Overall.rank                      -0.990
## 10 Score        Score                              1    
## #  with 54 more rows
…
