Project 2: Modeling, Testing, and Predicting
…
model.df

## # A tibble: 51 x 8
## y petro_cat log_odds .resid .std.resid .hat .sigma
.cooksd
## <dbl> <fct> <dbl> <dbl> <dbl> <dbl> <dbl> <dbl>
## 1 0 S -2.77 -0.348 -0.359 0.0588 0.399 1.38e- 3
## 2 0 S -2.77 -0.348 -0.359 0.0588 0.399 1.38e- 3
## 3 0 M -21.6 -0.0000293 -0.0000302 0.0588 0.402 9.53e-12
## 4 0 L -21.6 -0.0000293 -0.0000302 0.0588 0.402 9.53e-12
## 5 0 M -21.6 -0.0000293 -0.0000302 0.0588 0.402 9.53e-12
## 6 0 M -21.6 -0.0000293 -0.0000302 0.0588 0.402 9.53e-12
## 7 0 L -21.6 -0.0000293 -0.0000302 0.0588 0.402 9.53e-12
## 8 0 S -2.77 -0.348 -0.359 0.0588 0.399 1.38e- 3
## 9 0 M -21.6 -0.0000293 -0.0000302 0.0588 0.402 9.53e-12
## 10 0 M -21.6 -0.0000293 -0.0000302 0.0588 0.402 9.53e-12
## # … with 41 more rows
…
##           truth2
## prediction  0  1
##          0 25  1

class_diag(probs2,truth2)

##         acc sens spec ppv  f1 auc
## 1 0.9615385    0    1 NaN NaN 0.6

set.seed(1234)
k=10
donedat<-finaldat%>%sample_frac
donedat

## # A tibble: 51 x 14
## Biomass Geothermal Solar Wind Hydro HPS Coal Petroleum
Gas Nuclear Other Coal_c
## <dbl> <dbl> <dbl> <dbl> <dbl> <dbl> <dbl> <dbl> <dbl>
<dbl> <dbl> <dbl>
## 1 5.69e4 0 0 4.99e5 1.91e6 566713 7.18e7 86777. 3.40e6
1.02e7 2.74e4 3.88e7
## 2 7.53e5 0 0 2.76e6 1.61e5 0 9.09e7 110882. 4.36e6
9.41e7 6.43e4 5.79e7
## 3 3.64e6 0 0 2.60e5 4.59e6 0 7.24e4 480670. 7.48e6 0.
3.52e5 -3.30e7
## 4 8.45e3 0 0 2.76e6 1.48e6 0 2.98e7 48076. 7.57e2 0.
8.38e2 -3.21e6
## 5 5.77e3 0 0 3.92e5 4.32e6 0 3.19e6 10089. 1.22e5 0.
3.13e4 -2.98e7
## 6 7.54e5 0 0 0.  6.23e5 5385 2.45e6 288349. 9.68e6
1.67e7 7.13e5 -3.06e7
## 7 1.60e5 0 13759. 9.56e3 6.35e6 169480 3.98e7 67337.
3.49e7 3.07e7 5.34e2 6.76e6
## 8 6.00e5 0 0 1.55e4 4.98e5 0 1.14e8 1311952. 4.75e6
1.49e7 1.44e4 8.08e7
## 9 1.44e6 0 0 3.54e6 7.39e7 52383 7.48e6 47275. 1.14e7
6.63e6 6.37e4 -2.55e7
## 10 4.25e3 0 0 3.06e3 1.20e6 0 5.67e5 1191884. 3.57e6 0.
0.  -3.25e7
## # … with 41 more rows, and 2 more variables: Gas_c
…
